%YAML 1.1
%TAG !u! tag:unity3d.com,2011:
--- !u!1045 &1
EditorBuildSettings:
  m_ObjectHideFlags: 0
  serializedVersion: 2
  m_Scenes:
  - enabled: 0
    path: Assets/VRSampleScenes/Scenes/Intro.unity
  - enabled: 0
    path: Assets/VRSampleScenes/Scenes/MainMenu.unity
  - enabled: 0
    path: Assets/VRSampleScenes/Scenes/Maze.unity
  - enabled: 0
    path: Assets/VRSampleScenes/Scenes/Flyer.unity
  - enabled: 0
    path: Assets/VRSampleScenes/Scenes/Shooter360.unity
  - enabled: 0
    path: Assets/VRSampleScenes/Scenes/Shooter180.unity
  - enabled: 1
    path: Assets/Test.unity
